{
  "name": "tablecloth-bucklescript",
  "version": "0.0.8",
  "sources": [
    {
      "dir": "rescript/src",
      "public": [
        "Tablecloth",
        "TableclothBool",
        "TableclothChar",
        "TableclothString",
        "TableclothInt",
        "TableclothFloat",
        "TableclothContainer",
        "TableclothArray",
        "TableclothList",
        "TableclothOption",
        "TableclothResult",
        "TableclothTuple2",
        "TableclothTuple3",
        "TableclothComparator",
        "TableclothSet",
        "TableclothMap",
        "TableclothFun"
      ],
      "subdirs": false
    },
    {
      "dir": "rescript/test",
      "type": "dev",
      "subdirs": false
    }
  ],
  "package-specs": {
    "module": "commonjs",
    "in-source": true
  },
  "suffix": ".bs.js",
  "bs-dependencies": [],
  "bs-dev-dependencies": [
    "@glennsl/bs-jest"
  ],
  "bsc-flags": [
    "-bs-g",
    "-bs-super-errors"
  ],
  "refmt": 3
}
